Combined Gaussian NB and EEMD,MAPE
-578.1984961928534,139.54846075190514
244.80535352087247,85.34976938833799
-340.19397993748606,120.73089457266825
275.5537747107984,83.68538930072243
543.2416384567604,66.89569540178181
-223.2485930578042,113.18656781203805
-601.3355775013756,136.77893440375385
216.8013237262842,87.55445902834188
510.2609772349375,71.25290269098944
-534.8266714455995,132.83159431833022
308.8930809721212,81.49232588543313
-309.34427636691845,117.86052403966042
13.581088221599643,99.250905227711
435.24857558012695,76.09837586050922
578.6466116999444,67.95976679402301
-489.11238927544156,128.42024342100186
-867.4735330213039,156.586662297541
-379.52743380062515,123.83966292717494
-352.51468873398244,120.74836308028148
1072.4455644934897,36.2777442368693
235.0219655021496,86.62367868513662
203.6382154022989,88.1121882427146
-819.932637866268,148.00542376266208
-748.1352278847368,145.92604222742398
214.75464084018327,88.59508014656487
475.3070100879479,74.86478000592554
626.3409193923828,66.68399364934135
427.1579103500608,77.49431452317909
525.0846267985612,71.03780326538548
-530.518413195302,131.9204821417149
-610.6130362064537,138.35509021397323
307.6482062914517,81.9666936523182
89.68664759066189,94.93581888251485
107.01674793495701,93.91258544169754
-305.2977778912376,117.23872263643352
675.640693138282,62.67178490948718
256.55890694950006,84.94372611798708
-873.8090686761441,155.90589051030994
29.496638127718633,98.24945767788022
545.401741952594,70.80290460639219
176.0913185058505,90.7173790982683
650.2572798979257,65.52188335641962
-305.7227202561274,118.02610378868675
183.9518322972437,89.26142251621461
-614.5703956902454,138.17207426647485
278.1806090083132,84.99565215704891
318.5603209308214,82.23311093525814
90.29364672521416,94.96410224622342
151.94350216014573,91.5020412662111
837.8334845268108,50.94651729936705
293.19514058875484,81.92385076518158
-1315.9275471371395,193.32819483242125
959.6763448747249,48.293300383904906
1205.213688809112,36.83366410853711
-102.08185715961612,105.33343036361632
-1111.4022493963696,163.47243000550367
779.7054686318053,59.76751967844143
531.7990115355607,70.20733828932434
-887.4134321249326,156.30795889117593
80.88634772091854,95.71349508633182
723.3912939202968,63.148685994890634
-504.7033768435631,126.71801889060684
32.852383689435484,98.33151936569651
432.00854092761966,77.47609275664131
562.6397421575327,67.720037741966
-989.6872010264956,160.16335568550124
838.9252286368542,55.28117118140436
530.9953224030351,71.66513754519558
-27.739866929647118,101.55667042253911
-241.89979339524234,114.20433314123561
527.0727611501433,69.98446690488933
442.7948783005652,73.34166897648615
-1063.7993147400616,164.0842960686784
991.8017329598947,49.98478401614248
3.2627433436516466,99.83479780538474
-487.33535621268317,124.99155672885556
-794.6800562024785,139.39911037196222
639.2476539430202,68.1332176498993
996.684797817535,44.350374214542995
-1279.6016429191184,177.7400755114896
1000.5483617771278,49.210743056998595
373.58253668975914,80.8124018135717
-717.6288740050393,137.98988216013973
-45.741399112224116,102.36511887860517
830.6213576581849,58.07060284410979
-125.31097136879447,107.16472106168065
-811.3069530514313,147.97793926974757
769.8362942104411,60.276765004621204
-441.3295902694341,123.5878989989008
342.5742487573219,80.8403664005972
391.57257632324905,75.1382491223334
-728.2484943854076,149.00730110265195
707.8758859538881,57.864530597982856
-744.9906823573291,143.9263374031444
745.6043462336817,62.53244491288032
-468.63695765156996,122.96114442192895
-315.5561981274516,115.40049771241831
590.4432051626097,69.79830152620922
-626.9803099126123,135.9507058436131
719.7720002021878,59.72176831549032
-821.5425148015906,148.5832356476399
638.8404934682025,67.88132260089479
428.1806488075497,78.6123552044181
-735.9046355950875,137.14813910121595
190.0037907137397,90.50930116314986
738.6419598137982,62.12092513775394
198.16803117027428,88.47190045548142
-856.3690949993095,158.5351397812242
347.5038406754115,80.69423107358824
547.7777545592958,71.4103468392852
-83.7199850605458,104.12007800494811
-181.84114275640212,109.03334042505723
19.167533011570733,99.04305876127955
400.70867782767635,78.19865735431576
-630.07449372782,139.0380727216741
711.3013744516011,64.16617760949113
-720.1190475224843,139.17949116009163
564.1016594948347,71.62466501535037
47.55109772944878,97.6366253613594
335.01037080642425,83.41532817789978
-435.16474738587533,124.54397898397491
-784.6803977234039,145.07067189680666
1092.3814148065255,44.66152913847388
-1050.0949432998095,151.65248122478155
537.209083933085,74.24692790349545
474.3970635290193,77.47402357412064
387.01087755377307,80.65912655903182
210.2325161969215,88.28788210602107
-634.9837589697033,137.70687404808217
266.5951008978849,86.24380284324639
275.89413771914286,86.26025210562037
130.44285830241208,93.18836249073566
-96.85923677092987,105.37211518418911
-12.762400239452576,100.7137807740186
426.2290462361618,75.91926292451062
-643.791834108335,137.2780448238758
558.1099500485165,72.46620868038892
-226.6386041330411,112.42536206869744
-27.410109747812083,101.45103810205464
-305.74384522097444,115.3331918365584
112.19895035050467,94.10719798579282
672.2167718078631,63.28690487122539
-893.3950041234186,152.21478691545403
808.2747965618669,59.90700413879629
-233.55971330961623,111.97128207635141
-394.4177417744766,120.06194006991235
-120.20777123976502,105.83816276055197
160.3131803426737,92.19507398526419
342.36368515597087,81.95236240611646
-548.0052073499858,133.41495166768203
601.3183879282633,66.29381233585968
-634.5879984441253,136.40780254986376
464.83121756258635,75.89049701438869
415.2515508361921,79.20623180589925
-718.4805191281254,135.41057265293864
776.9138111055572,57.429380213394126
-832.5505914220346,150.48821051680017
850.3232515817274,56.57184619092301
-640.3262650063236,132.405175354571
-415.53074714107873,120.70407310119974
-233.1675967656257,111.8179217823429
822.9696676520974,57.09230095661639
-487.0799211524169,128.70241138199273
-684.1745285992114,139.8470896097386
596.8608807170825,69.39174970681627
519.9444141951192,73.77990851260115
-761.7090023571445,138.76381691384958
65.9391802794626,96.62887626383116
699.7362906931762,65.01318546534118
474.61335258842087,73.90800700448483
-863.3242954454286,151.3577808117447
599.5501981216204,69.96241492376652
92.82605668323187,95.39781573211543
-104.00678399342,105.11089847633514
63.17419172456175,96.87256476611081
-25.135278610444267,101.26054556722389
579.7919251024973,68.17826975288159
-919.9047667652767,157.17245287540564
685.912392808593,64.7345813466019
757.8460695331667,62.389773224160464
-1051.358715612086,152.85865840181427
447.0176854468219,77.00526309429928
979.6476780851725,47.724243431954505
-271.17616712518463,115.29476407925463
-1051.4542142525956,163.53197669199974
854.9414870534101,54.18320005072829
367.1458662647808,80.80784807816096
-675.0518625690775,136.4105643241142
499.5380654332988,73.84617458464403
-390.2824577004985,122.03740585547706
404.6269103691303,76.86524240313722
-538.2551202133877,132.40548586474338
568.4293044875178,71.53583853342424
-462.82505238007155,124.72356049038845
-64.62643356280039,103.26561058932796
357.5375472699777,82.1141797263643
687.0898201956265,61.57215770717973
770.5275373335367,57.09757587229752
-1128.9173125402003,170.86737680729442
920.5068962301066,51.34741563265821
-415.9106372500486,122.59156095872073
178.52237587814625,91.19712150502238
-174.3216704342507,109.0839849105915
24.110479335355,98.78475406575832
189.74852022563337,89.944434540242
-237.912548218611,113.15160576111725
38.900316620887814,98.1493664785496
-85.35029898820409,104.17974040098943
-56.38497180236682,102.81221804500582
483.9135471767301,77.03305423935785
-588.8824759993706,128.1761950238933
528.7394771344589,71.71003332613918
-457.8714660527254,126.45126898051561
360.06131602536493,82.60573352534469
62.69691917780379,97.02858202948798
250.3214728003127,88.3245581716272
-872.5426305201654,141.90886794044982
-281.4469436937643,113.67575042243753
1190.7639173387613,36.08352563935796
-1159.3227481936153,173.09727289997576
713.0446498814762,60.518014956728884
155.30568430216186,91.99867674898704
211.35140138694692,89.75017452051664
182.7730751270874,91.1447153523698
-159.0895795563259,108.5074641473971
580.8580292874628,68.03202920817486
-942.7277098210257,154.4614505962464
1001.7839546509272,50.085503006929386
-955.320185424144,146.7149234926232
209.88571318202372,89.79155091527123
24.145928154986937,98.81869236032352
1310.9633891894482,34.484588246404385
-1565.5160962741525,188.89926725009383
194.92651266980633,88.53373454883493
1121.486358400866,44.672601953583325
857.460929980691,56.99794734299443
-318.88796395096324,116.04064204984724
222.52857958186496,88.49981500868914
341.9308167252092,82.6254666298166
209.84454545519324,88.33548941327442
-499.9043529780102,130.00626368415428
-506.58210885475063,129.40116708385088
871.8658827406302,56.45025560736113
-545.0003806136206,127.45593856995569
-727.9228162569854,136.21506548542217
872.133724076561,57.05890083325647
476.7283966935701,74.7361739961012
-999.0315846537064,159.43079028279038
387.63076595697976,78.53650243870543
424.13740379417027,77.24584743593508
132.78321955891445,93.14136262608913
671.9904965600956,65.28974707850746
483.403722267797,75.26081257585481
401.8728162733416,77.79708197384853
-1000.0534190158202,159.8118073574055
584.758695064677,70.68878721480317
83.63279960830641,95.48906150980008
300.16056579365977,84.92413029665194
423.527416249201,78.23600122049326
521.9659875750358,72.85668291341467
304.3640110225714,82.86238676674711
-926.4316644037677,154.7860239150661
522.0651906576762,72.45038571727301
140.29240571885816,92.86043736799705
-390.8483261939997,120.2722160889004
178.58572166831578,91.05729986638379
1038.3787777384478,48.89868219791103
32.700569729106725,98.18229184385176
-1028.6585333405305,160.01508362546855
796.8384949934721,60.74687216780926
56.31790859556031,97.26080211111088
-353.13527755384143,117.03498685739709
-271.96642591381976,113.24081917788803
787.7954226688637,61.154071860509674
151.42134161744616,91.88959070072598
-1024.0898234701667,158.78816437831037
554.0990411974683,71.01992462356338
816.7878355450885,57.96254063072113
354.946501313892,82.36728756513203
564.3628582980862,72.67007950130333
1309.759026281833,33.004653387118516
449.05690895550356,74.01291036137133
-1474.7582651408688,193.81413900387204
655.7564242485063,64.38042236564333
606.9482455667335,68.77838242969477
781.7152210631024,61.52976274295755
42.485825357356326,97.90607070688239
24.574320198900544,98.76262234648034
411.15649181066624,78.09501908307585
-615.4964089647628,134.73456032532522
489.1761903014146,75.73530802076316
67.119244947745,96.76065420136365
-323.828743406826,115.79652406862566
-52.43919933477131,102.59728575209367
564.8321886999659,71.71596451176937
161.24506947612346,91.14038079801519
-771.710662659491,144.76279945820713
-129.46866655283577,106.20060663567222
727.0978354043945,64.39285820742437
-512.5425279985127,125.99100040560411
-154.6421877270195,107.51785064302477
50.56024115837951,97.5900743013165
768.6349919171761,60.215580128510545
-793.5800649255841,147.89258086454944
-340.87397715308623,119.80673893974935
825.9385806727878,56.43783857211035
-718.2292665703951,135.27648657025517
442.91493217534537,78.45744493310578
409.3396955938815,80.23468394042098
412.1950177362009,78.09803306396383
-804.0687813529706,143.96220783777864
684.3122749748306,67.84246828125796
-372.6363235425157,119.59181511790302
89.03143454246859,95.59032023068507
52.052095023617284,97.42952617167322
-90.19692722183807,104.66857801355269
539.362383179485,70.71865455051656
-681.522629262694,138.78899426651643
533.3537484132953,73.51768875802904
-33.00695580036177,101.66786032341393
-150.3151011696357,107.55732032024314
39.186482877218246,98.07342758715741
134.71396766100608,93.42216954780244
426.4880401217322,77.36263056678705
-813.8693104726473,144.5711561047452
571.4337451694373,72.13877400441554
619.9445144471234,69.32486321389791
-679.6015129153875,133.37924916087363
-370.51627133665033,119.38860655869442
-87.83725428713015,104.7530981757105
849.4636650573975,53.95860893997846
-881.6046140159006,149.94926991591504
720.7418561072232,63.208685242101936
-341.0160690863475,118.5941149992556
77.41051008534002,96.16969272215042
330.53083540759667,83.80544657483603
-484.64969389583865,125.8342054315479
650.5460232962583,65.1555424051281
-774.6577459509163,144.39299403730178
682.4862305467248,64.43531888761206
-275.7642890719017,114.04810438471226
-95.6898131215509,104.96574017236901
-118.2565028355929,105.99070429764907
-203.72830091394476,110.46908021140517
687.8624868802651,64.35945663832824
-895.2289586662125,151.30251912127295
1059.5914684861086,47.25776662587812
-1281.9707106922262,169.86216407042102
1523.5265281345523,23.74742101428667
-1585.9306249060683,196.8803069582204
398.30491935017415,76.57029886175445
858.549375612418,51.35697588598199
579.1959602892201,66.65538513015427
268.24993747335736,86.35554743268783
-12.08910573391407,100.651352679629
3.942080376957335,99.77703165288703
-36.92929092190858,102.00267304348746
29.42704476502961,98.23895602842433
-58.486037056283145,103.78305543701701
-66.4804586699039,103.88093745883852
-170.25892907632328,108.98464005679807
446.6007791331663,75.95041577096573
-357.8844686765868,120.20804453283947
-234.2446296313902,113.14504094452245
